Lab09/singlecycle.vcd
$date
	Sun Apr  6 16:54:29 2025
$end
$version
	Icarus Verilog
$end
$timescale
	1ps
$end
$scope module SingleCycleProcTest_v $end
$var wire 64 ! currentPC [63:0] $end
$var wire 64 " MemtoRegOut [63:0] $end
$var reg 1 # CLK $end
$var reg 1 $ Reset_L $end
$var reg 8 % passed [7:0] $end
$var reg 64 & startPC [63:0] $end
$var reg 16 ' watchdog [15:0] $end
$scope module uut $end
$var wire 1 # CLK $end
$var wire 1 $ resetl $end
$var wire 64 ( startpc [63:0] $end
$var wire 1 ) zero $end
$var wire 1 * uncond_branch $end
$var wire 3 + signop [2:0] $end
$var wire 5 , rn [4:0] $end
$var wire 5 - rm [4:0] $end
$var wire 1 . regwrite $end
$var wire 64 / regoutB [63:0] $end
$var wire 64 0 regoutA [63:0] $end
$var wire 1 1 reg2loc $end
$var wire 64 2 readdata [63:0] $end
$var wire 5 3 rd [4:0] $end
$var wire 11 4 opcode [10:0] $end
$var wire 64 5 nextpc [63:0] $end
$var wire 64 6 movkmask [63:0] $end
$var wire 1 7 memwrite $end
$var wire 1 8 memread $end
$var wire 1 9 mem2reg $end
$var wire 32 : instruction [31:0] $end
$var wire 64 ; extimm [63:0] $end
$var wire 64 < branch_target [63:0] $end
$var wire 1 = branch $end
$var wire 1 > alusrc $end
$var wire 64 ? aluout [63:0] $end
$var wire 4 @ aluctrl [3:0] $end
$var wire 64 A aluSource [63:0] $end
$var wire 64 B MemtoRegOut [63:0] $end
$var reg 64 C currentpc [63:0] $end
$scope module RF $end
$var wire 64 D BusW [63:0] $end
$var wire 1 # Clk $end
$var wire 5 E RA [4:0] $end
$var wire 5 F RB [4:0] $end
$var wire 5 G RW [4:0] $end
$var wire 1 . RegWr $end
$var wire 64 H BusB [63:0] $end
$var wire 64 I BusA [63:0] $end
$scope begin $ivl_for_loop0 $end
$var integer 32 J i [31:0] $end
$upscope $end
$upscope $end
$scope module SE $end
$var wire 26 K Imm [25:0] $end
$var wire 3 L Ctrl [2:0] $end
$var reg 64 M ExtImm [63:0] $end
$var reg 64 N MovKMask [63:0] $end
$upscope $end
$scope module alu $end
$var wire 64 O BusA [63:0] $end
$var wire 64 P BusB [63:0] $end
$var wire 64 Q MovKMask [63:0] $end
$var wire 1 ) Zero $end
$var wire 4 R ALUCtrl [3:0] $end
$var reg 64 S BusW [63:0] $end
$upscope $end
$scope module control $end
$var wire 11 T opcode [10:0] $end
$var reg 4 U aluop [3:0] $end
$var reg 1 > alusrc $end
$var reg 1 = branch $end
$var reg 1 9 mem2reg $end
$var reg 1 8 memread $end
$var reg 1 7 memwrite $end
$var reg 1 1 reg2loc $end
$var reg 1 . regwrite $end
$var reg 3 V signop [2:0] $end
$var reg 1 * uncond_branch $end
$upscope $end
$scope module dMem $end
$var wire 64 W Address [63:0] $end
$var wire 1 # Clock $end
$var wire 1 8 MemoryRead $end
$var wire 1 7 MemoryWrite $end
$var wire 64 X WriteData [63:0] $end
$var reg 64 Y ReadData [63:0] $end
$scope task initset $end
$var reg 64 Z addr [63:0] $end
$var reg 64 [ data [63:0] $end
$upscope $end
$upscope $end
$scope module imem $end
$var wire 64 \ Address [63:0] $end
$var reg 32 ] Data [31:0] $end
$upscope $end
$upscope $end
$scope task allPassed $end
$var reg 8 ^ numTests [7:0] $end
$var reg 8 _ passed [7:0] $end
$upscope $end
$scope task passTest $end
$var reg 64 ` actualOut [63:0] $end
$var reg 64 a expectedOut [63:0] $end
$var reg 8 b passed [7:0] $end
$var reg 257 c testType [256:0] $end
$upscope $end
$upscope $end
$enddefinitions $end
#0
$dumpvars
bx c
bx b
bx a
bx `
bx _
bx ^
bx ]
bx \
b0 [
b100000 Z
bx Y
bx X
bx W
bx V
bx U
bx T
bx S
bx R
bx Q
bx P
bx O
bx N
bx M
bx L
bx K
b100000 J
bx I
bx H
bx G
bx F
bx E
bx D
bx C
bx B
bx A
bx @
bx ?
x>
x=
bx <
bx ;
bx :
x9
x8
x7
bx 6
bx 5
bx 4
bx 3
bx 2
x1
bx 0
bx /
x.
bx -
bx ,
bx +
x*
x)
b0 (
b0 '
b0 &
b0 %
1$
0#
bx "
bx !
$end
#60000
1#
#120000
b1 '
0#
#121000
0$
#180000
1#
#240000
b10 '
0#
#243000
b100 5
b0 <
b0 A
b0 P
b0x00x ,
b0x00x F
b1111111111111111111111111111111111111111111111111111111111111111 6
b1111111111111111111111111111111111111111111111111111111111111111 N
b1111111111111111111111111111111111111111111111111111111111111111 Q
b0 ;
b0 M
b1 +
b1 L
b1 V
b10 @
b10 R
b10 U
0*
0=
07
18
1.
19
1>
b11111 -
b11111 E
b10000000000001111101001 K
b11111000010 4
b11111000010 T
b1001 3
b1001 G
b11111000010000000000001111101001 :
b11111000010000000000001111101001 ]
b0 !
b0 C
b0 \
#245000
1)
b0 ?
b0 S
b0 W
b0 0
b0 I
b0 O
#300000
b1 "
b1 B
b1 D
b1 2
b1 Y
1$
1#
#360000
b11 '
0#
#363000
0)
b1000 ?
b1000 S
b1000 W
b1000 A
b1000 P
b0x0x0 ,
b0x0x0 F
b1000 ;
b1000 M
b10000001000001111101010 K
b1010 3
b1010 G
b1000 5
b11111000010000001000001111101010 :
b11111000010000001000001111101010 ]
b100100 <
b100 !
b100 C
b100 \
#420000
b1010 "
b1010 B
b1010 D
b1010 2
b1010 Y
1#
#480000
b100 '
0#
#483000
b10000 ?
b10000 S
b10000 W
b10000 A
b10000 P
b0x0x1 ,
b0x0x1 F
b10000 ;
b10000 M
b10000010000001111101011 K
b1011 3
b1011 G
b1100 5
b11111000010000010000001111101011 :
b11111000010000010000001111101011 ]
b1001000 <
b1000 !
b1000 C
b1000 \
#540000
b101 "
b101 B
b101 D
b101 2
b101 Y
1#
#600000
b101 '
0#
#603000
b11000 ?
b11000 S
b11000 W
b11000 A
b11000 P
b0xx0x ,
b0xx0x F
b11000 ;
b11000 M
b10000011000001111101100 K
b1100 3
b1100 G
b10000 5
b11111000010000011000001111101100 :
b11111000010000011000001111101100 ]
b1101100 <
b1100 !
b1100 C
b1100 \
#660000
b111111111011111010100111110111101010110110111110111011111111 "
b111111111011111010100111110111101010110110111110111011111111 B
b111111111011111010100111110111101010110110111110111011111111 D
b111111111011111010100111110111101010110110111110111011111111 2
b111111111011111010100111110111101010110110111110111011111111 Y
1#
#720000
b110 '
0#
#723000
b100000 ?
b100000 S
b100000 W
b100000 A
b100000 P
b0xxxx ,
b0xxxx F
b100000 ;
b100000 M
b10000100000001111101101 K
b1101 3
b1101 G
b10100 5
b11111000010000100000001111101101 :
b11111000010000100000001111101101 ]
b10010000 <
b10000 !
b10000 C
b10000 \
#780000
b0 "
b0 B
b0 D
b0 2
b0 Y
1#
#840000
b111 '
0#
#843000
x)
bx ?
bx S
bx W
bx "
bx B
bx D
bx A
bx P
b1011 ,
b1011 F
b0 ;
b0 M
bx +
bx L
bx V
b1 @
b1 R
b1 U
08
09
0>
01
b1010 -
b1010 E
b10000010110000000101001010 K
b10101010000 4
b10101010000 T
b1010 3
b1010 G
b11000 5
b10101010000010110000000101001010 :
b10101010000010110000000101001010 ]
b10100 <
b10100 !
b10100 C
b10100 \
#845000
b1111 "
b1111 B
b1111 D
b101 A
b101 P
0)
b1111 ?
b1111 S
b1111 W
b101 /
b101 H
b101 X
b1010 0
b1010 I
b1010 O
#900000
1#
#960000
b1000 '
0#
#963000
b0 "
b0 B
b0 D
1)
b0 ?
b0 S
b0 W
b1010 ,
b1010 F
b0 @
b0 R
b0 U
b1100 -
b1100 E
b10000010100000000110001100 K
b10001010000 4
b10001010000 T
b1100 3
b1100 G
b11100 5
b10001010000010100000000110001100 :
b10001010000010100000000110001100 ]
b11000 <
b11000 !
b11000 C
b11000 \
#965000
b1111 "
b1111 B
b1111 D
b1111 A
b1111 P
0)
b1111 ?
b1111 S
b1111 W
b1111 /
b1111 H
b1111 X
b111111111011111010100111110111101010110110111110111011111111 0
b111111111011111010100111110111101010110110111110111011111111 I
b111111111011111010100111110111101010110110111110111011111111 O
#1020000
1#
#1080000
b1001 '
0#
#1083000
b0xxxx "
b0xxxx B
b0xxxx D
b1100 ,
b1100 F
b100 ;
b100 M
b11 +
b11 L
b11 V
b111 @
b111 R
b111 U
1=
0.
x9
11
b100 -
b100 E
b10001100 K
b10110100000 4
b10110100000 T
b100000 5
b10110100000000000000000010001100 :
b10110100000000000000000010001100 ]
b101100 <
b11100 !
b11100 C
b11100 \
#1085000
b0 0
b0 I
b0 O
#1140000
1#
#1200000
b1010 '
0#
#1203000
b1111 "
b1111 B
b1111 D
b1001 ,
b1001 F
b0 ;
b0 M
bx +
bx L
bx V
b10 @
b10 R
b10 U
0=
1.
09
01
b1101 -
b1101 E
b11000010010000000110101101 K
b10001011000 4
b10001011000 T
b1101 3
b1101 G
b100100 5
b10001011000010010000000110101101 :
b10001011000010010000000110101101 ]
b100000 <
b100000 !
b100000 C
b100000 \
#1205000
b1 "
b1 B
b1 D
b1 ?
b1 S
b1 W
b1 A
b1 P
b1 /
b1 H
b1 X
#1260000
1#
#1320000
b1011 '
0#
#1323000
b1111111111111111111111111111111111111111111111111111111111111111 "
b1111111111111111111111111111111111111111111111111111111111111111 B
b1111111111111111111111111111111111111111111111111111111111111111 D
b1111111111111111111111111111111111111111111111111111111111111111 ?
b1111111111111111111111111111111111111111111111111111111111111111 S
b1111111111111111111111111111111111111111111111111111111111111111 W
b110 @
b110 R
b110 U
b1100 -
b1100 E
b11000010010000000110001100 K
b11001011000 4
b11001011000 T
b1100 3
b1100 G
b101000 5
b11001011000010010000000110001100 :
b11001011000010010000000110001100 ]
b100100 <
b100100 !
b100100 C
b100100 \
#1325000
b1110 "
b1110 B
b1110 D
b1110 ?
b1110 S
b1110 W
b1111 0
b1111 I
b1111 O
#1380000
1#
#1440000
b1100 '
0#
#1443000
b1 ?
b1 S
b1 W
b0x "
b0x B
b0x D
b111x1 ,
b111x1 F
b1111111111111111111111111111111111111111111111111111111111111101 ;
b1111111111111111111111111111111111111111111111111111111111111101 M
b10 +
b10 L
b10 V
b111 @
b111 R
b111 U
1*
x=
0.
x9
x1
b11111 -
b11111 E
b11111111111111111111111101 K
b10111111 4
b10111111 T
b11101 3
b11101 G
b11100 5
b10111111111111111111111111101 :
b10111111111111111111111111101 ]
b11100 <
b101000 !
b101000 C
b101000 \
#1445000
bx "
bx B
bx D
x)
bx ?
bx S
bx W
bx A
bx P
bx /
bx H
bx X
b0 0
b0 I
b0 O
#1500000
1#
#1560000
b1101 '
0#
#1563000
b1100 ,
b1100 F
b100 ;
b100 M
b11 +
b11 L
b11 V
0*
1=
11
b100 -
b100 E
b10001100 K
b10110100000 4
b10110100000 T
b1100 3
b1100 G
b10xx00 5
b10110100000000000000000010001100 :
b10110100000000000000000010001100 ]
b101100 <
b11100 !
b11100 C
b11100 \
#1565000
b100000 5
b0xxx0 "
b0xxx0 B
b0xxx0 D
0)
b1110 ?
b1110 S
b1110 W
b1110 A
b1110 P
b1110 /
b1110 H
b1110 X
#1620000
1#
#1680000
b1110 '
0#
#1683000
b1110 "
b1110 B
b1110 D
b1001 ,
b1001 F
b0 ;
b0 M
bx +
bx L
bx V
b10 @
b10 R
b10 U
0=
1.
09
01
b1101 -
b1101 E
b11000010010000000110101101 K
b10001011000 4
b10001011000 T
b1101 3
b1101 G
b100100 5
b10001011000010010000000110101101 :
b10001011000010010000000110101101 ]
b100000 <
b100000 !
b100000 C
b100000 \
#1685000
b10 "
b10 B
b10 D
b1 A
b1 P
b10 ?
b10 S
b10 W
b1 /
b1 H
b1 X
b1 0
b1 I
b1 O
#1740000
1#
#1800000
b1111 '
0#
#1803000
b0 "
b0 B
b0 D
1)
b0 ?
b0 S
b0 W
b110 @
b110 R
b110 U
b1100 -
b1100 E
b11000010010000000110001100 K
b11001011000 4
b11001011000 T
b1100 3
b1100 G
b101000 5
b11001011000010010000000110001100 :
b11001011000010010000000110001100 ]
b100100 <
b100100 !
b100100 C
b100100 \
#1805000
b1101 "
b1101 B
b1101 D
0)
b1101 ?
b1101 S
b1101 W
b1110 0
b1110 I
b1110 O
#1860000
1#
#1920000
b10000 '
0#
#1923000
b1 ?
b1 S
b1 W
b0x "
b0x B
b0x D
b111x1 ,
b111x1 F
b1111111111111111111111111111111111111111111111111111111111111101 ;
b1111111111111111111111111111111111111111111111111111111111111101 M
b10 +
b10 L
b10 V
b111 @
b111 R
b111 U
1*
x=
0.
x9
x1
b11111 -
b11111 E
b11111111111111111111111101 K
b10111111 4
b10111111 T
b11101 3
b11101 G
b11100 5
b10111111111111111111111111101 :
b10111111111111111111111111101 ]
b11100 <
b101000 !
b101000 C
b101000 \
#1925000
bx "
bx B
bx D
x)
bx ?
bx S
bx W
bx A
bx P
bx /
bx H
bx X
b0 0
b0 I
b0 O
#1980000
1#
#2040000
b10001 '
0#
#2043000
b1100 ,
b1100 F
b100 ;
b100 M
b11 +
b11 L
b11 V
0*
1=
11
b100 -
b100 E
b10001100 K
b10110100000 4
b10110100000 T
b1100 3
b1100 G
b10xx00 5
b10110100000000000000000010001100 :
b10110100000000000000000010001100 ]
b101100 <
b11100 !
b11100 C
b11100 \
#2045000
b100000 5
b0xx0x "
b0xx0x B
b0xx0x D
0)
b1101 ?
b1101 S
b1101 W
b1101 A
b1101 P
b1101 /
b1101 H
b1101 X
#2100000
1#
#2160000
b10010 '
0#
#2163000
b1101 "
b1101 B
b1101 D
b1001 ,
b1001 F
b0 ;
b0 M
bx +
bx L
bx V
b10 @
b10 R
b10 U
0=
1.
09
01
b1101 -
b1101 E
b11000010010000000110101101 K
b10001011000 4
b10001011000 T
b1101 3
b1101 G
b100100 5
b10001011000010010000000110101101 :
b10001011000010010000000110101101 ]
b100000 <
b100000 !
b100000 C
b100000 \
#2165000
b11 "
b11 B
b11 D
b1 A
b1 P
b11 ?
b11 S
b11 W
b1 /
b1 H
b1 X
b10 0
b10 I
b10 O
#2220000
1#
#2280000
b10011 '
0#
#2283000
b1 "
b1 B
b1 D
b1 ?
b1 S
b1 W
b110 @
b110 R
b110 U
b1100 -
b1100 E
b11000010010000000110001100 K
b11001011000 4
b11001011000 T
b1100 3
b1100 G
b101000 5
b11001011000010010000000110001100 :
b11001011000010010000000110001100 ]
b100100 <
b100100 !
b100100 C
b100100 \
#2285000
b1100 "
b1100 B
b1100 D
b1100 ?
b1100 S
b1100 W
b1101 0
b1101 I
b1101 O
#2340000
1#
#2400000
b10100 '
0#
#2403000
b1 ?
b1 S
b1 W
b0x "
b0x B
b0x D
b111x1 ,
b111x1 F
b1111111111111111111111111111111111111111111111111111111111111101 ;
b1111111111111111111111111111111111111111111111111111111111111101 M
b10 +
b10 L
b10 V
b111 @
b111 R
b111 U
1*
x=
0.
x9
x1
b11111 -
b11111 E
b11111111111111111111111101 K
b10111111 4
b10111111 T
b11101 3
b11101 G
b11100 5
b10111111111111111111111111101 :
b10111111111111111111111111101 ]
b11100 <
b101000 !
b101000 C
b101000 \
#2405000
bx "
bx B
bx D
x)
bx ?
bx S
bx W
bx A
bx P
bx /
bx H
bx X
b0 0
b0 I
b0 O
#2460000
1#
#2520000
b10101 '
0#
#2523000
b1100 ,
b1100 F
b100 ;
b100 M
b11 +
b11 L
b11 V
0*
1=
11
b100 -
b100 E
b10001100 K
b10110100000 4
b10110100000 T
b1100 3
b1100 G
b10xx00 5
b10110100000000000000000010001100 :
b10110100000000000000000010001100 ]
b101100 <
b11100 !
b11100 C
b11100 \
#2525000
b100000 5
b0xx00 "
b0xx00 B
b0xx00 D
0)
b1100 ?
b1100 S
b1100 W
b1100 A
b1100 P
b1100 /
b1100 H
b1100 X
#2580000
1#
#2640000
b10110 '
0#
#2643000
b1100 "
b1100 B
b1100 D
b1001 ,
b1001 F
b0 ;
b0 M
bx +
bx L
bx V
b10 @
b10 R
b10 U
0=
1.
09
01
b1101 -
b1101 E
b11000010010000000110101101 K
b10001011000 4
b10001011000 T
b1101 3
b1101 G
b100100 5
b10001011000010010000000110101101 :
b10001011000010010000000110101101 ]
b100000 <
b100000 !
b100000 C
b100000 \
#2645000
b100 "
b100 B
b100 D
b1 A
b1 P
b100 ?
b100 S
b100 W
b1 /
b1 H
b1 X
b11 0
b11 I
b11 O
#2700000
1#
#2760000
b10111 '
0#
#2763000
b10 "
b10 B
b10 D
b10 ?
b10 S
b10 W
b110 @
b110 R
b110 U
b1100 -
b1100 E
b11000010010000000110001100 K
b11001011000 4
b11001011000 T
b1100 3
b1100 G
b101000 5
b11001011000010010000000110001100 :
b11001011000010010000000110001100 ]
b100100 <
b100100 !
b100100 C
b100100 \
#2765000
b1011 "
b1011 B
b1011 D
b1011 ?
b1011 S
b1011 W
b1100 0
b1100 I
b1100 O
#2820000
1#
#2880000
b11000 '
0#
#2883000
b1 ?
b1 S
b1 W
b0x "
b0x B
b0x D
b111x1 ,
b111x1 F
b1111111111111111111111111111111111111111111111111111111111111101 ;
b1111111111111111111111111111111111111111111111111111111111111101 M
b10 +
b10 L
b10 V
b111 @
b111 R
b111 U
1*
x=
0.
x9
x1
b11111 -
b11111 E
b11111111111111111111111101 K
b10111111 4
b10111111 T
b11101 3
b11101 G
b11100 5
b10111111111111111111111111101 :
b10111111111111111111111111101 ]
b11100 <
b101000 !
b101000 C
b101000 \
#2885000
bx "
bx B
bx D
x)
bx ?
bx S
bx W
bx A
bx P
bx /
bx H
bx X
b0 0
b0 I
b0 O
#2940000
1#
#3000000
b11001 '
0#
#3003000
b1100 ,
b1100 F
b100 ;
b100 M
b11 +
b11 L
b11 V
0*
1=
11
b100 -
b100 E
b10001100 K
b10110100000 4
b10110100000 T
b1100 3
b1100 G
b10xx00 5
b10110100000000000000000010001100 :
b10110100000000000000000010001100 ]
b101100 <
b11100 !
b11100 C
b11100 \
#3005000
b100000 5
b0x0xx "
b0x0xx B
b0x0xx D
0)
b1011 ?
b1011 S
b1011 W
b1011 A
b1011 P
b1011 /
b1011 H
b1011 X
#3060000
1#
#3120000
b11010 '
0#
#3123000
b1011 "
b1011 B
b1011 D
b1001 ,
b1001 F
b0 ;
b0 M
bx +
bx L
bx V
b10 @
b10 R
b10 U
0=
1.
09
01
b1101 -
b1101 E
b11000010010000000110101101 K
b10001011000 4
b10001011000 T
b1101 3
b1101 G
b100100 5
b10001011000010010000000110101101 :
b10001011000010010000000110101101 ]
b100000 <
b100000 !
b100000 C
b100000 \
#3125000
b101 "
b101 B
b101 D
b1 A
b1 P
b101 ?
b101 S
b101 W
b1 /
b1 H
b1 X
b100 0
b100 I
b100 O
#3180000
1#
#3240000
b11011 '
0#
#3243000
b11 "
b11 B
b11 D
b11 ?
b11 S
b11 W
b110 @
b110 R
b110 U
b1100 -
b1100 E
b11000010010000000110001100 K
b11001011000 4
b11001011000 T
b1100 3
b1100 G
b101000 5
b11001011000010010000000110001100 :
b11001011000010010000000110001100 ]
b100100 <
b100100 !
b100100 C
b100100 \
#3245000
b1010 "
b1010 B
b1010 D
b1010 ?
b1010 S
b1010 W
b1011 0
b1011 I
b1011 O
#3300000
1#
#3360000
b11100 '
0#
#3363000
b1 ?
b1 S
b1 W
b0x "
b0x B
b0x D
b111x1 ,
b111x1 F
b1111111111111111111111111111111111111111111111111111111111111101 ;
b1111111111111111111111111111111111111111111111111111111111111101 M
b10 +
b10 L
b10 V
b111 @
b111 R
b111 U
1*
x=
0.
x9
x1
b11111 -
b11111 E
b11111111111111111111111101 K
b10111111 4
b10111111 T
b11101 3
b11101 G
b11100 5
b10111111111111111111111111101 :
b10111111111111111111111111101 ]
b11100 <
b101000 !
b101000 C
b101000 \
#3365000
bx "
bx B
bx D
x)
bx ?
bx S
bx W
bx A
bx P
bx /
bx H
bx X
b0 0
b0 I
b0 O
#3420000
1#
#3480000
b11101 '
0#
#3483000
b1100 ,
b1100 F
b100 ;
b100 M
b11 +
b11 L
b11 V
0*
1=
11
b100 -
b100 E
b10001100 K
b10110100000 4
b10110100000 T
b1100 3
b1100 G
b10xx00 5
b10110100000000000000000010001100 :
b10110100000000000000000010001100 ]
b101100 <
b11100 !
b11100 C
b11100 \
#3485000
b100000 5
b0x0x0 "
b0x0x0 B
b0x0x0 D
0)
b1010 ?
b1010 S
b1010 W
b1010 A
b1010 P
b1010 /
b1010 H
b1010 X
#3540000
1#
#3600000
b11110 '
0#
#3603000
b1010 "
b1010 B
b1010 D
b1001 ,
b1001 F
b0 ;
b0 M
bx +
bx L
bx V
b10 @
b10 R
b10 U
0=
1.
09
01
b1101 -
b1101 E
b11000010010000000110101101 K
b10001011000 4
b10001011000 T
b1101 3
b1101 G
b100100 5
b10001011000010010000000110101101 :
b10001011000010010000000110101101 ]
b100000 <
b100000 !
b100000 C
b100000 \
#3605000
b110 "
b110 B
b110 D
b1 A
b1 P
b110 ?
b110 S
b110 W
b1 /
b1 H
b1 X
b101 0
b101 I
b101 O
#3660000
1#
#3720000
b11111 '
0#
#3723000
b100 "
b100 B
b100 D
b100 ?
b100 S
b100 W
b110 @
b110 R
b110 U
b1100 -
b1100 E
b11000010010000000110001100 K
b11001011000 4
b11001011000 T
b1100 3
b1100 G
b101000 5
b11001011000010010000000110001100 :
b11001011000010010000000110001100 ]
b100100 <
b100100 !
b100100 C
b100100 \
#3725000
b1001 "
b1001 B
b1001 D
b1001 ?
b1001 S
b1001 W
b1010 0
b1010 I
b1010 O
#3780000
1#
#3840000
b100000 '
0#
#3843000
b1 ?
b1 S
b1 W
b0x "
b0x B
b0x D
b111x1 ,
b111x1 F
b1111111111111111111111111111111111111111111111111111111111111101 ;
b1111111111111111111111111111111111111111111111111111111111111101 M
b10 +
b10 L
b10 V
b111 @
b111 R
b111 U
1*
x=
0.
x9
x1
b11111 -
b11111 E
b11111111111111111111111101 K
b10111111 4
b10111111 T
b11101 3
b11101 G
b11100 5
b10111111111111111111111111101 :
b10111111111111111111111111101 ]
b11100 <
b101000 !
b101000 C
b101000 \
#3845000
bx "
bx B
bx D
x)
bx ?
bx S
bx W
bx A
bx P
bx /
bx H
bx X
b0 0
b0 I
b0 O
#3900000
1#
#3960000
b100001 '
0#
#3963000
b1100 ,
b1100 F
b100 ;
b100 M
b11 +
b11 L
b11 V
0*
1=
11
b100 -
b100 E
b10001100 K
b10110100000 4
b10110100000 T
b1100 3
b1100 G
b10xx00 5
b10110100000000000000000010001100 :
b10110100000000000000000010001100 ]
b101100 <
b11100 !
b11100 C
b11100 \
#3965000
b100000 5
b0x00x "
b0x00x B
b0x00x D
0)
b1001 ?
b1001 S
b1001 W
b1001 A
b1001 P
b1001 /
b1001 H
b1001 X
#4020000
1#
#4080000
b100010 '
0#
#4083000
b1001 "
b1001 B
b1001 D
b1001 ,
b1001 F
b0 ;
b0 M
bx +
bx L
bx V
b10 @
b10 R
b10 U
0=
1.
09
01
b1101 -
b1101 E
b11000010010000000110101101 K
b10001011000 4
b10001011000 T
b1101 3
b1101 G
b100100 5
b10001011000010010000000110101101 :
b10001011000010010000000110101101 ]
b100000 <
b100000 !
b100000 C
b100000 \
#4085000
b111 "
b111 B
b111 D
b1 A
b1 P
b111 ?
b111 S
b111 W
b1 /
b1 H
b1 X
b110 0
b110 I
b110 O
#4140000
1#
#4200000
b100011 '
0#
#4203000
b101 "
b101 B
b101 D
b101 ?
b101 S
b101 W
b110 @
b110 R
b110 U
b1100 -
b1100 E
b11000010010000000110001100 K
b11001011000 4
b11001011000 T
b1100 3
b1100 G
b101000 5
b11001011000010010000000110001100 :
b11001011000010010000000110001100 ]
b100100 <
b100100 !
b100100 C
b100100 \
#4205000
b1000 "
b1000 B
b1000 D
b1000 ?
b1000 S
b1000 W
b1001 0
b1001 I
b1001 O
#4260000
1#
#4320000
b100100 '
0#
#4323000
b1 ?
b1 S
b1 W
b0x "
b0x B
b0x D
b111x1 ,
b111x1 F
b1111111111111111111111111111111111111111111111111111111111111101 ;
b1111111111111111111111111111111111111111111111111111111111111101 M
b10 +
b10 L
b10 V
b111 @
b111 R
b111 U
1*
x=
0.
x9
x1
b11111 -
b11111 E
b11111111111111111111111101 K
b10111111 4
b10111111 T
b11101 3
b11101 G
b11100 5
b10111111111111111111111111101 :
b10111111111111111111111111101 ]
b11100 <
b101000 !
b101000 C
b101000 \
#4325000
bx "
bx B
bx D
x)
bx ?
bx S
bx W
bx A
bx P
bx /
bx H
bx X
b0 0
b0 I
b0 O
#4380000
1#
#4440000
b100101 '
0#
#4443000
b1100 ,
b1100 F
b100 ;
b100 M
b11 +
b11 L
b11 V
0*
1=
11
b100 -
b100 E
b10001100 K
b10110100000 4
b10110100000 T
b1100 3
b1100 G
b10xx00 5
b10110100000000000000000010001100 :
b10110100000000000000000010001100 ]
b101100 <
b11100 !
b11100 C
b11100 \
#4445000
b100000 5
b0x000 "
b0x000 B
b0x000 D
0)
b1000 ?
b1000 S
b1000 W
b1000 A
b1000 P
b1000 /
b1000 H
b1000 X
#4500000
1#
#4560000
b100110 '
0#
#4563000
b1000 "
b1000 B
b1000 D
b1001 ,
b1001 F
b0 ;
b0 M
bx +
bx L
bx V
b10 @
b10 R
b10 U
0=
1.
09
01
b1101 -
b1101 E
b11000010010000000110101101 K
b10001011000 4
b10001011000 T
b1101 3
b1101 G
b100100 5
b10001011000010010000000110101101 :
b10001011000010010000000110101101 ]
b100000 <
b100000 !
b100000 C
b100000 \
#4565000
b1000 "
b1000 B
b1000 D
b1 A
b1 P
b1000 ?
b1000 S
b1000 W
b1 /
b1 H
b1 X
b111 0
b111 I
b111 O
#4620000
1#
#4680000
b100111 '
0#
#4683000
b110 "
b110 B
b110 D
b110 ?
b110 S
b110 W
b110 @
b110 R
b110 U
b1100 -
b1100 E
b11000010010000000110001100 K
b11001011000 4
b11001011000 T
b1100 3
b1100 G
b101000 5
b11001011000010010000000110001100 :
b11001011000010010000000110001100 ]
b100100 <
b100100 !
b100100 C
b100100 \
#4685000
b111 "
b111 B
b111 D
b111 ?
b111 S
b111 W
b1000 0
b1000 I
b1000 O
#4740000
1#
#4800000
b101000 '
0#
#4803000
b1 ?
b1 S
b1 W
b0x "
b0x B
b0x D
b111x1 ,
b111x1 F
b1111111111111111111111111111111111111111111111111111111111111101 ;
b1111111111111111111111111111111111111111111111111111111111111101 M
b10 +
b10 L
b10 V
b111 @
b111 R
b111 U
1*
x=
0.
x9
x1
b11111 -
b11111 E
b11111111111111111111111101 K
b10111111 4
b10111111 T
b11101 3
b11101 G
b11100 5
b10111111111111111111111111101 :
b10111111111111111111111111101 ]
b11100 <
b101000 !
b101000 C
b101000 \
#4805000
bx "
bx B
bx D
x)
bx ?
bx S
bx W
bx A
bx P
bx /
bx H
bx X
b0 0
b0 I
b0 O
#4860000
1#
#4920000
b101001 '
0#
#4923000
b1100 ,
b1100 F
b100 ;
b100 M
b11 +
b11 L
b11 V
0*
1=
11
b100 -
b100 E
b10001100 K
b10110100000 4
b10110100000 T
b1100 3
b1100 G
b10xx00 5
b10110100000000000000000010001100 :
b10110100000000000000000010001100 ]
b101100 <
b11100 !
b11100 C
b11100 \
#4925000
b100000 5
b0xxx "
b0xxx B
b0xxx D
0)
b111 ?
b111 S
b111 W
b111 A
b111 P
b111 /
b111 H
b111 X
#4980000
1#
#5040000
b101010 '
0#
#5043000
b111 "
b111 B
b111 D
b1001 ,
b1001 F
b0 ;
b0 M
bx +
bx L
bx V
b10 @
b10 R
b10 U
0=
1.
09
01
b1101 -
b1101 E
b11000010010000000110101101 K
b10001011000 4
b10001011000 T
b1101 3
b1101 G
b100100 5
b10001011000010010000000110101101 :
b10001011000010010000000110101101 ]
b100000 <
b100000 !
b100000 C
b100000 \
#5045000
b1001 "
b1001 B
b1001 D
b1 A
b1 P
b1001 ?
b1001 S
b1001 W
b1 /
b1 H
b1 X
b1000 0
b1000 I
b1000 O
#5100000
1#
#5160000
b101011 '
0#
#5163000
b111 "
b111 B
b111 D
b111 ?
b111 S
b111 W
b110 @
b110 R
b110 U
b1100 -
b1100 E
b11000010010000000110001100 K
b11001011000 4
b11001011000 T
b1100 3
b1100 G
b101000 5
b11001011000010010000000110001100 :
b11001011000010010000000110001100 ]
b100100 <
b100100 !
b100100 C
b100100 \
#5165000
b110 "
b110 B
b110 D
b110 ?
b110 S
b110 W
b111 0
b111 I
b111 O
#5220000
1#
#5280000
b101100 '
0#
#5283000
b1 ?
b1 S
b1 W
b0x "
b0x B
b0x D
b111x1 ,
b111x1 F
b1111111111111111111111111111111111111111111111111111111111111101 ;
b1111111111111111111111111111111111111111111111111111111111111101 M
b10 +
b10 L
b10 V
b111 @
b111 R
b111 U
1*
x=
0.
x9
x1
b11111 -
b11111 E
b11111111111111111111111101 K
b10111111 4
b10111111 T
b11101 3
b11101 G
b11100 5
b10111111111111111111111111101 :
b10111111111111111111111111101 ]
b11100 <
b101000 !
b101000 C
b101000 \
#5285000
bx "
bx B
bx D
x)
bx ?
bx S
bx W
bx A
bx P
bx /
bx H
bx X
b0 0
b0 I
b0 O
#5340000
1#
#5400000
b101101 '
0#
#5403000
b1100 ,
b1100 F
b100 ;
b100 M
b11 +
b11 L
b11 V
0*
1=
11
b100 -
b100 E
b10001100 K
b10110100000 4
b10110100000 T
b1100 3
b1100 G
b10xx00 5
b10110100000000000000000010001100 :
b10110100000000000000000010001100 ]
b101100 <
b11100 !
b11100 C
b11100 \
#5405000
b100000 5
b0xx0 "
b0xx0 B
b0xx0 D
0)
b110 ?
b110 S
b110 W
b110 A
b110 P
b110 /
b110 H
b110 X
#5460000
1#
#5520000
b101110 '
0#
